^C:\USERS\PIETRO\DOCUMENTS\DEV\GIT\SAMPLE-ARKANOID\ARKANOID\ARKANOID\X64\RELEASE\ARKANOID.OBJ|C:\USERS\PIETRO\DOCUMENTS\DEV\GIT\SAMPLE-ARKANOID\ARKANOID\ARKANOID\X64\RELEASE\ARKANOID.RES|C:\USERS\PIETRO\DOCUMENTS\DEV\GIT\SAMPLE-ARKANOID\ARKANOID\ARKANOID\X64\RELEASE\BALL.OBJ|C:\USERS\PIETRO\DOCUMENTS\DEV\GIT\SAMPLE-ARKANOID\ARKANOID\ARKANOID\X64\RELEASE\BRICK.OBJ|C:\USERS\PIETRO\DOCUMENTS\DEV\GIT\SAMPLE-ARKANOID\ARKANOID\ARKANOID\X64\RELEASE\COLLIDER.OBJ|C:\USERS\PIETRO\DOCUMENTS\DEV\GIT\SAMPLE-ARKANOID\ARKANOID\ARKANOID\X64\RELEASE\DEVICERESOURCES.OBJ|C:\USERS\PIETRO\DOCUMENTS\DEV\GIT\SAMPLE-ARKANOID\ARKANOID\ARKANOID\X64\RELEASE\ENGINE.OBJ|C:\USERS\PIETRO\DOCUMENTS\DEV\GIT\SAMPLE-ARKANOID\ARKANOID\ARKANOID\X64\RELEASE\GAMEMANAGER.OBJ|C:\USERS\PIETRO\DOCUMENTS\DEV\GIT\SAMPLE-ARKANOID\ARKANOID\ARKANOID\X64\RELEASE\GAMEOBJECT.OBJ|C:\USERS\PIETRO\DOCUMENTS\DEV\GIT\SAMPLE-ARKANOID\ARKANOID\ARKANOID\X64\RELEASE\PADDLE.OBJ|C:\USERS\PIETRO\DOCUMENTS\DEV\GIT\SAMPLE-ARKANOID\ARKANOID\ARKANOID\X64\RELEASE\POWERUP.OBJ|C:\USERS\PIETRO\DOCUMENTS\DEV\GIT\SAMPLE-ARKANOID\ARKANOID\ARKANOID\X64\RELEASE\POWERUPINCREMENTSIZE.OBJ|C:\USERS\PIETRO\DOCUMENTS\DEV\GIT\SAMPLE-ARKANOID\ARKANOID\ARKANOID\X64\RELEASE\POWERUPMULTIBALL.OBJ|C:\USERS\PIETRO\DOCUMENTS\DEV\GIT\SAMPLE-ARKANOID\ARKANOID\ARKANOID\X64\RELEASE\WALL.OBJ
C:\USERS\PIETRO\DOCUMENTS\DEV\GIT\SAMPLE-ARKANOID\ARKANOID\X64\RELEASE\ARKANOID.EXE
C:\USERS\PIETRO\DOCUMENTS\DEV\GIT\SAMPLE-ARKANOID\ARKANOID\ARKANOID\X64\RELEASE\ARKANOID.IPDB
C:\USERS\PIETRO\DOCUMENTS\DEV\GIT\SAMPLE-ARKANOID\ARKANOID\X64\RELEASE\ARKANOID.PDB
C:\USERS\PIETRO\DOCUMENTS\DEV\GIT\SAMPLE-ARKANOID\ARKANOID\ARKANOID\X64\RELEASE\ARKANOID.IOBJ
